CODIGO ,NOMBRE,P1,P2,P3,EXAMEN
12265,NOMBRE 1,2,5,1,2
11510,NOMBRE 2,1,2,0,1
11584,NOMBRE 3,1,1,4,3
16980,NOMBRE 4,3,3,2,0
11500,NOMBRE 5,3,0,3,3
11530,NOMBRE 6,2,3,2,4
11590,NOMBRE 7,5,3,4,0
11583,NOMBRE 8,2,1,5,1
15289,NOMBRE 9,3,3,3,4
11539,NOMBRE 10,3,3,5,0
11535,NOMBRE 11,4,3,2,4
11552,NOMBRE 12,5,2,0,5
10377,NOMBRE 13,0,0,3,4
11574,NOMBRE 14,0,5,5,4
11571,NOMBRE 15,1,3,3,4
11571,NOMBRE 16,5,2,3,0
11512,NOMBRE 17,1,3,5,0
12320,NOMBRE 18,2,3,4,3
11512,NOMBRE 19,0,2,2,2
